
[
	
	{
		"date_day" : "Today",
		"date_month" : "December",
		"date_num" : "",
		"max_temp" : 9,
		"min_temp" : 8,
		"weather" : "Clear",
		"weather_string" : "Sky is clear"
	},
	
	{
		"date_day" : "Saturday",
		"date_month" : "December",
		"date_num" : "20th",
		"max_temp" : 10,
		"min_temp" : 5,
		"weather" : "Clouds",
		"weather_string" : "Overcast clouds"
	},
	
	{
		"date_day" : "Sunday",
		"date_month" : "December",
		"date_num" : "21st",
		"max_temp" : 12,
		"min_temp" : 4,
		"weather" : "Rain",
		"weather_string" : "Light rain"
	}
]
